{
    "extends": "tslint-config-airbnb",
    "rules": {
        "object-literal-key-quotes": [true, "consistent-as-needed"],
        "object-literal-shorthand": [true, "never"],
        "no-else-after-return": [false],
        "max-line-length": [true, 120],
        "align": [false],
        "variable-name": [true, "ban-keywords", "check-format", "allow-leading-underscore"]
    }
}
